"A","A","A",92.76398029335775,1.781553408695242
"A","A","C",84.01984873224548,2.045205052103445
"A","A","G",89.75970422395282,1.756408755796251
"A","A","T",82.92199683426043,2.053026186871435
"A","C","A",95.8919230791924,1.5486287738714615
"A","C","C",94.65558088527197,1.652998659560751
"A","C","G",95.10899144722126,1.5322611221101523
"A","C","T",92.48464977227275,1.5581866392975157
"A","G","A",90.6041291996347,1.8360249913286322
"A","G","C",86.62712264279097,1.7670355556566588
"A","G","G",90.22756254476398,1.7777655348977033
"A","G","T",84.1203722077387,1.9678300488024845
"A","T","A",88.43098357618078,1.9900603522479907
"A","T","C",85.21725769055438,2.4263772406271293
"A","T","G",85.86625774464343,2.0217466307989818
"A","T","T",77.78010844843351,2.427551933901085
"C","A","A",111.20423910172812,2.034030889989672
"C","A","C",103.55565241792733,1.7261485009407171
"C","A","G",108.66640983573375,1.966773116219474
"C","A","T",102.62030980178976,2.0197455591553206
"C","C","A",111.06615431590279,1.7099364124638476
"C","C","C",108.0648416979898,1.5519309357736688
"C","C","G",109.87208612472446,1.7492558272615795
"C","C","T",106.83991356211146,1.8253093294231681
"C","G","A",105.94286471397179,2.096352390897397
"C","G","C",102.67486512129702,1.827863861914165
"C","G","G",105.6876392737646,2.002431494577754
"C","G","T",101.80692212219171,2.1742211990668605
"C","T","A",103.89960109289396,1.874104437612089
"C","T","C",98.19139252313843,2.152592411469025
"C","T","G",101.37264309703747,1.8268785853830338
"C","T","T",92.05874315024836,1.9695430657325022
"G","A","A",87.1456081170712,2.159232381223349
"G","A","C",78.48456620025576,2.3301906767482805
"G","A","G",86.29037478623331,2.0995441925275897
"G","A","T",76.37592163583147,2.3917519003099645
"G","C","A",93.46814048845947,1.6122451035559529
"G","C","C",92.06736020804658,1.7577066220146975
"G","C","G",91.76555728124391,1.643866442208248
"G","C","T",89.66058846858543,1.7096832141980915
"G","G","A",88.23428264772339,2.220311922334286
"G","G","C",84.47751303441291,2.051142154431401
"G","G","G",89.44592318748714,2.0701280926123933
"G","G","T",82.72766756170418,2.304627932643821
"G","T","A",83.92296103539189,2.199547405943053
"G","T","C",79.48307893189049,2.7020011869186216
"G","T","G",80.31853870350139,2.403160948361256
"G","T","T",73.0,2.7825438946945775
"T","A","A",114.83527629165587,2.4424061231615224
"T","A","C",110.48475686538609,2.2826507726639433
"T","A","G",112.63708905754021,2.453208596256619
"T","A","T",112.4571215859316,2.6632225490893355
"T","C","A",121.0,2.476026308819629
"T","C","C",120.0378607296216,2.338768522571807
"T","C","G",120.38194135618203,2.5157013261413987
"T","C","T",120.45423650509471,2.600027568417593
"T","G","A",111.02303583205642,2.372849692952544
"T","G","C",110.65858506706255,2.2365239816225757
"T","G","G",111.54546306570896,2.3719422242526162
"T","G","T",112.85859439519673,2.6874398533719557
"T","T","A",107.70363500140768,1.89127104011578
"T","T","C",104.00827392876397,1.9507909876167426
"T","T","G",105.37165745958042,1.8575295552033302
"T","T","T",99.6766657556541,1.7370848164894954
